{
	"credit": "Made with Blockbench",
	"textures": {
		"29": "moomoomilk"
	},
	"elements": [
		{
			"from": [6, 0, 6],
			"to": [10, 8, 10],
			"faces": {
				"north": {"uv": [4, 2, 8, 10], "texture": "#29"},
				"east": {"uv": [0, 2, 4, 10], "texture": "#29"},
				"south": {"uv": [12, 2, 16, 10], "texture": "#29"},
				"west": {"uv": [8, 2, 12, 10], "texture": "#29"},
				"up": {"uv": [4, 14, 0, 10], "rotation": 270, "texture": "#29"},
				"down": {"uv": [12, 10, 8, 14], "rotation": 90, "texture": "#29"}
			}
		},
		{
			"from": [6.5, 8.5, 6.5],
			"to": [9.5, 10.5, 9.5],
			"faces": {
				"north": {"uv": [5, 0, 7, 2], "texture": "#29"},
				"east": {"uv": [9, 0, 11, 2], "texture": "#29"},
				"south": {"uv": [13, 0, 15, 2], "texture": "#29"},
				"west": {"uv": [1, 0, 3, 2], "texture": "#29"},
				"up": {"uv": [2, 14, 4, 16], "rotation": 270, "texture": "#29"},
				"down": {"uv": [10, 14, 12, 16], "rotation": 90, "texture": "#29"}
			}
		},
		{
			"from": [7, 8, 7],
			"to": [9, 10, 9],
			"faces": {
				"north": {"uv": [5, 0, 7, 2], "texture": "#29"},
				"east": {"uv": [9, 0, 11, 2], "texture": "#29"},
				"south": {"uv": [13, 0, 15, 2], "texture": "#29"},
				"west": {"uv": [1, 0, 3, 2], "texture": "#29"},
				"up": {"uv": [2, 14, 4, 16], "rotation": 270, "texture": "#29"},
				"down": {"uv": [10, 14, 12, 16], "rotation": 90, "texture": "#29"}
			}
		},
		{
			"from": [4.8, 8.6, 6],
			"to": [6.8, 8.6, 10],
			"rotation": {"angle": 22.5, "axis": "z", "origin": [7, 8, 8]},
			"faces": {
				"north": {"uv": [0, 0, 2, 0], "texture": "#29"},
				"east": {"uv": [0, 0, 6, 0], "texture": "#29"},
				"south": {"uv": [0, 0, 2, 0], "texture": "#29"},
				"west": {"uv": [0, 0, 6, 0], "texture": "#29"},
				"up": {"uv": [12, 10, 14, 14], "texture": "#29"},
				"down": {"uv": [14, 10, 16, 14], "texture": "#29"}
			}
		},
		{
			"from": [6, 8.6, 9.2],
			"to": [10, 8.6, 11.2],
			"rotation": {"angle": 22.5, "axis": "x", "origin": [8, 8, 9]},
			"faces": {
				"north": {"uv": [0, 0, 6, 0], "texture": "#29"},
				"east": {"uv": [0, 0, 2, 0], "texture": "#29"},
				"south": {"uv": [0, 0, 6, 0], "texture": "#29"},
				"west": {"uv": [0, 0, 2, 0], "texture": "#29"},
				"up": {"uv": [12, 10, 14, 14], "rotation": 270, "texture": "#29"},
				"down": {"uv": [14, 10, 16, 14], "rotation": 90, "texture": "#29"}
			}
		},
		{
			"from": [9.2, 8.6, 6],
			"to": [11.2, 8.6, 10],
			"rotation": {"angle": -22.5, "axis": "z", "origin": [9, 8, 8]},
			"faces": {
				"north": {"uv": [0, 0, 2, 0], "texture": "#29"},
				"east": {"uv": [0, 0, 6, 0], "texture": "#29"},
				"south": {"uv": [0, 0, 2, 0], "texture": "#29"},
				"west": {"uv": [0, 0, 6, 0], "texture": "#29"},
				"up": {"uv": [12, 10, 14, 14], "rotation": 180, "texture": "#29"},
				"down": {"uv": [14, 10, 16, 14], "rotation": 180, "texture": "#29"}
			}
		},
		{
			"from": [6, 8.6, 4.9],
			"to": [10, 8.6, 6.9],
			"rotation": {"angle": -22.5, "axis": "x", "origin": [8, 8, 7]},
			"faces": {
				"north": {"uv": [0, 0, 6, 0], "texture": "#29"},
				"east": {"uv": [0, 0, 2, 0], "texture": "#29"},
				"south": {"uv": [0, 0, 6, 0], "texture": "#29"},
				"west": {"uv": [0, 0, 2, 0], "texture": "#29"},
				"up": {"uv": [12, 10, 14, 14], "rotation": 90, "texture": "#29"},
				"down": {"uv": [14, 10, 16, 14], "rotation": 270, "texture": "#29"}
			}
		}
	],
	"display": {
		"thirdperson_righthand": {
			"translation": [-1.5, 1.5, 0]
		},
		"thirdperson_lefthand": {
			"translation": [-1.5, 1.5, 0],
			"scale": [-1, 1, 1]
		},
		"firstperson_righthand": {
			"rotation": [0, -5, 0],
			"translation": [0, 5, 0]
		},
		"firstperson_lefthand": {
			"rotation": [0, -5, 0],
			"translation": [0, 5, 0]
		},
		"ground": {
			"translation": [0, 4.5, 0]
		},
		"gui": {
			"rotation": [25, -142, 0],
			"translation": [0, 3.25, 0],
			"scale": [1.25, 1.25, 1.25]
		},
		"head": {
			"translation": [0, 19, 0],
			"scale": [1.65, 1.65, 1.65]
		},
		"fixed": {
			"translation": [0, 4.25, 0],
			"scale": [1.5, 1.5, 1.5]
		}
	},
	"groups": [
		{
			"name": "Moomoo Milk",
			"origin": [0, 0, 0],
			"color": 0,
			"children": [0, 1, 2, 3, 4, 5, 6]
		}
	]
}