{
	"credit": "Made with Blockbench",
	"textures": {
		"1": "potion"
	},
	"elements": [
		{
			"from": [7, 0, 7],
			"to": [9, 1, 10],
			"rotation": {"angle": 0, "axis": "y", "origin": [0, 0, 1]},
			"faces": {
				"north": {"uv": [2, 9, 4, 10], "texture": "#1"},
				"east": {"uv": [16, 9, 12, 10], "texture": "#1"},
				"south": {"uv": [15, 14, 16, 12], "rotation": 90, "texture": "#1"},
				"west": {"uv": [12, 9, 16, 10], "texture": "#1"},
				"up": {"uv": [0, 0, 2, 4], "texture": "#1"},
				"down": {"uv": [2, 1, 3, 2], "texture": "#1"}
			}
		},
		{
			"from": [5, 2, 7],
			"to": [11, 5, 10],
			"rotation": {"angle": 0, "axis": "y", "origin": [0, 0, 1]},
			"faces": {
				"north": {"uv": [0, 5, 6, 8], "texture": "#1"},
				"east": {"uv": [15, 5, 12, 8], "texture": "#1"},
				"south": {"uv": [11, 16, 14, 10], "rotation": 90, "texture": "#1"},
				"west": {"uv": [12, 5, 15, 8], "texture": "#1"},
				"up": {"uv": [0, 12, 6, 15], "texture": "#1"},
				"down": {"uv": [2, 1, 3, 2], "texture": "#1"}
			}
		},
		{
			"from": [6, 1, 6],
			"to": [10, 5, 11],
			"rotation": {"angle": 0, "axis": "y", "origin": [0, 0, 1]},
			"faces": {
				"north": {"uv": [1, 5, 5, 9], "texture": "#1"},
				"east": {"uv": [16, 5, 11, 9], "texture": "#1"},
				"south": {"uv": [11, 15, 15, 11], "rotation": 90, "texture": "#1"},
				"west": {"uv": [11, 5, 16, 9], "texture": "#1"},
				"up": {"uv": [7, 7, 8, 8], "texture": "#1"},
				"down": {"uv": [2, 1, 3, 2], "texture": "#1"}
			}
		},
		{
			"from": [7, 9, 7],
			"to": [9, 10, 10],
			"rotation": {"angle": 0, "axis": "y", "origin": [0, 0, 1]},
			"faces": {
				"north": {"uv": [2, 0, 4, 1], "texture": "#1"},
				"east": {"uv": [16, 0, 12, 1], "texture": "#1"},
				"south": {"uv": [6, 14, 7, 12], "rotation": 90, "texture": "#1"},
				"west": {"uv": [12, 0, 16, 1], "texture": "#1"},
				"up": {"uv": [2, 12, 4, 16], "texture": "#1"},
				"down": {"uv": [0, 0, 2, 4], "texture": "#1"}
			}
		},
		{
			"from": [6, 5, 7],
			"to": [10, 6, 10],
			"rotation": {"angle": 0, "axis": "y", "origin": [0, 0, 1]},
			"faces": {
				"north": {"uv": [1, 4, 5, 5], "texture": "#1"},
				"east": {"uv": [15, 4, 12, 5], "texture": "#1"},
				"south": {"uv": [10, 15, 11, 11], "rotation": 90, "texture": "#1"},
				"west": {"uv": [12, 4, 15, 5], "texture": "#1"},
				"up": {"uv": [0, 0, 4, 3], "texture": "#1"},
				"down": {"uv": [0, 0, 4, 3], "texture": "#1"}
			}
		},
		{
			"from": [6, 6, 6],
			"to": [10, 9, 11],
			"rotation": {"angle": 0, "axis": "y", "origin": [0, 0, 1]},
			"faces": {
				"north": {"uv": [1, 1, 5, 4], "texture": "#1"},
				"east": {"uv": [16, 1, 11, 4], "texture": "#1"},
				"south": {"uv": [7, 15, 10, 11], "rotation": 90, "texture": "#1"},
				"west": {"uv": [11, 1, 16, 4], "texture": "#1"},
				"up": {"uv": [1, 11, 5, 16], "texture": "#1"},
				"down": {"uv": [7, 5, 8, 6], "texture": "#1"}
			}
		},
		{
			"from": [7, 7, 5],
			"to": [9, 9, 6],
			"rotation": {"angle": 0, "axis": "y", "origin": [0, 0, 1]},
			"faces": {
				"north": {"uv": [2, 1, 4, 3], "texture": "#1"},
				"east": {"uv": [11, 1, 10, 3], "texture": "#1"},
				"south": {"uv": [0, 2, 2, 4], "texture": "#1"},
				"west": {"uv": [10, 1, 11, 3], "texture": "#1"},
				"up": {"uv": [4, 11, 2, 10], "texture": "#1"},
				"down": {"uv": [11, 2, 10, 3], "texture": "#1"}
			}
		},
		{
			"from": [7, 5, 3],
			"to": [9, 9, 5],
			"rotation": {"angle": 22.5, "axis": "x", "origin": [0, 0, 1]},
			"faces": {
				"north": {"uv": [7, 1, 9, 5], "texture": "#1"},
				"east": {"uv": [7, 5, 9, 9], "texture": "#1"},
				"south": {"uv": [0, 0, 2, 4], "texture": "#1"},
				"west": {"uv": [9, 5, 7, 9], "texture": "#1"},
				"up": {"uv": [0, 0, 2, 2], "texture": "#1"},
				"down": {"uv": [7, 1, 9, 3], "texture": "#1"}
			}
		}
	],
	"display": {
		"thirdperson_righthand": {
			"translation": [-1.75, 1.75, 0]
		},
		"thirdperson_lefthand": {
			"translation": [-1.75, 1.75, 0]
		},
		"firstperson_righthand": {
			"translation": [0, 4.5, 0]
		},
		"firstperson_lefthand": {
			"translation": [0, 4.5, 0]
		},
		"ground": {
			"translation": [0, 4.5, 0]
		},
		"gui": {
			"rotation": [0, -90, 0],
			"translation": [0, 3.75, 0],
			"scale": [1.25, 1.25, 1.25]
		},
		"head": {
			"translation": [0, 13.5, 0]
		},
		"fixed": {
			"rotation": [0, 90, 0],
			"translation": [0, 3, 0]
		}
	},
	"groups": [
		{
			"name": "Potion",
			"origin": [0, 0, 0],
			"color": 0,
			"children": [0, 1, 2, 3, 4, 5, 6, 7]
		}
	]
}