{
	"format_version": "1.8.0",
	"animations": {
		"animation.patrat.test": {
			"loop": true,
			"bones": {
				"body": {
					"position": [0, -0.25, 0]
				},
				"torso": {
					"rotation": [5.02832, 4.95712, 0.65426],
					"position": [0, 0, 0]
				},
				"head": {
					"rotation": [0, 15, 0]
				},
				"left_cheek": {
					"rotation": [0, -5, 0]
				},
				"right_cheek": {
					"rotation": [0, 10, 0]
				},
				"upper_torso": {
					"rotation": [0, 0, 0]
				},
				"left_lower_arm": {
					"rotation": [0, 0, 0]
				},
				"left_upper_arm": {
					"rotation": [0, 0, 5]
				},
				"left_hand": {
					"rotation": [0, 0, -62.5]
				},
				"left_lower_leg": {
					"rotation": [0.17458, -6.92618, 9.61581]
				},
				"left_upper_leg": {
					"rotation": [-9.07947, -4.20854, -24.66569],
					"position": [0, 0, -0.5]
				},
				"left_foot": {
					"rotation": [12.71959, -2.71113, 13.48539]
				},
				"tail_1": {
					"rotation": [45.68718, 8.80348, 8.90928]
				},
				"tail_2": {
					"rotation": [5.019, -4.98093, -0.43688]
				},
				"tail_3": {
					"rotation": [5.00474, -2.49048, -0.21803]
				},
				"left_pinky_finger": {
					"rotation": [-0.21865, -4.99523, 17.50954]
				},
				"left_thumb": {
					"rotation": [12.31832, 45.90578, 21.29285]
				},
				"left_pointer_finger": {
					"rotation": [0, 5, 12.5]
				},
				"right_upper_arm": {
					"rotation": [-70.43481, -15.32364, 23.00742],
					"position": [0, -0.25, 0],
					"scale": [1.1, 1, 1]
				},
				"right_lower_arm": {
					"rotation": [-0.91804, -60.67544, 16.47078],
					"scale": [1.3, 1, 1]
				},
				"right_hand": {
					"rotation": [-92.60789, -60.15686, 2.03175]
				},
				"right_thumb": {
					"rotation": [-4.10333, -24.55404, -13.85399]
				},
				"right_pointer_finger": {
					"rotation": [0, 0, -17.5]
				},
				"right_pinky_finger": {
					"rotation": [0, 0, -17.5]
				},
				"right_upper_leg": {
					"rotation": [-9.07947, 4.20854, 24.66569],
					"position": [0, 0, 0.25]
				},
				"right_lower_leg": {
					"rotation": [0.17458, 6.92618, -9.61581]
				},
				"right_foot": {
					"rotation": [12.71959, 2.71113, -13.48539]
				},
				"left_toes": {
					"rotation": [0, 0, 0]
				},
				"middle_tail_fluff": {
					"rotation": [-27.5, 0, 0]
				},
				"jaw": {
					"rotation": [57.5, 0, 0]
				},
				"left_tail_fluff": {
					"rotation": [-49.64413, 17.6525, -14.25416]
				},
				"right_tail_fluff": {
					"rotation": [-49.64413, -17.6525, 14.25416]
				}
			}
		},
		"animation.patrat.ground_idle": {
			"loop": true,
			"bones": {
				"upper_torso": {
					"rotation": [0, 0, 0]
				},
				"head": {
					"rotation": [2.5, 0, 0]
				},
				"left_upper_arm": {
					"rotation": [22.5, 0, 50]
				},
				"left_lower_arm": {
					"rotation": [0, 15, 0]
				},
				"left_hand": {
					"rotation": [0, 15, 0]
				},
				"left_thumb": {
					"rotation": [6.42848, 26.79524, 14.03271]
				},
				"left_pointer_finger": {
					"rotation": [1.50701, 4.76804, 17.56274]
				},
				"left_pinky_finger": {
					"rotation": [-1.71394, -4.69776, 20.07031]
				},
				"right_upper_arm": {
					"rotation": [22.5, 0, -50]
				},
				"right_lower_arm": {
					"rotation": [0, -15, 0]
				},
				"right_hand": {
					"rotation": [0, -15, 0]
				},
				"right_thumb": {
					"rotation": [6.42848, -26.79524, -14.03271]
				},
				"right_pointer_finger": {
					"rotation": [1.50701, -4.76804, -17.56274]
				},
				"right_pinky_finger": {
					"rotation": [-1.71394, 4.69776, -20.07031]
				},
				"tail_1": {
					"rotation": [50, 0, 0]
				},
				"tail_2": {
					"rotation": [5, 0, 0]
				},
				"tail_3": {
					"rotation": [5, 0, 0]
				},
				"middle_tail_fluff": {
					"rotation": [-27.5, 0, 0]
				},
				"left_tail_fluff": {
					"rotation": [-49.64413, 17.6525, -14.25416]
				},
				"right_tail_fluff": {
					"rotation": [-49.64413, -17.6525, 14.25416]
				},
				"left_upper_leg": {
					"rotation": [-0.32902, -7.49282, -7.47846]
				},
				"left_lower_leg": {
					"rotation": [0.07734, -4.61854, 3.08243]
				},
				"left_foot": {
					"rotation": [2, 0, 5]
				},
				"right_upper_leg": {
					"rotation": [-0.32902, 7.49282, 7.47846]
				},
				"right_lower_leg": {
					"rotation": [0.07734, 4.61854, -3.08243]
				},
				"right_foot": {
					"rotation": [2, 0, -5]
				}
			}
		},
		"animation.patrat.blink": {
			"animation_length": 0.16667,
			"bones": {
				"left_pupil": {
					"position": {
						"0.0": [0, 0, 0.1],
						"0.125": [0, 0, 0.1],
						"0.1667": [0, 0, 0]
					}
				},
				"right_pupil": {
					"position": {
						"0.0": [0, 0, 0.1],
						"0.125": [0, 0, 0.1],
						"0.1667": [0, 0, 0]
					}
				},
				"right_eye_closed": {
					"position": {
						"0.0": [0, 0, -0.1],
						"0.125": [0, 0, -0.1],
						"0.1667": [0, 0, 0]
					}
				},
				"left_eye_closed": {
					"position": {
						"0.0": [0, 0, -0.1],
						"0.125": [0, 0, -0.1],
						"0.1667": [0, 0, 0]
					}
				}
			}
		},
		"animation.patrat.cry": {
			"animation_length": 1.25,
			"bones": {
				"head": {
					"rotation": {
						"0.0": [0, 0, 0],
						"0.25": [-5, 0, 0],
						"1.0": [-5, 0, 0],
						"1.25": [0, 0, 0]
					}
				},
				"jaw": {
					"rotation": {
						"0.0": [0, 0, 0],
						"0.25": [60, 0, 0],
						"1.0": [60, 0, 0],
						"1.25": [0, 0, 0]
					}
				}
			}
		}
	}
}