{
	"format_version": "1.8.0",
	"animations": {
		"animation.raboot.ground_idle": {
			"loop": true,
			"bones": {
				"hair": {
					"rotation": [-15, 0, 0]
				},
				"hair2": {
					"rotation": [-20, 0, 0]
				},
				"hair_left": {
					"rotation": [-20, 0, 25]
				},
				"hair_left2": {
					"rotation": [-22.5, 0, 0]
				},
				"hair_right": {
					"rotation": [-20, 0, -25]
				},
				"hair_right2": {
					"rotation": [-22.5, 0, 0]
				},
				"ear_left": {
					"rotation": [0, 0, 52.5]
				},
				"ear_left2": {
					"rotation": [0, 0, 15]
				},
				"ear_right": {
					"rotation": [0, 0, -52.5]
				},
				"ear_right2": {
					"rotation": [0, 0, -15]
				},
				"arm_left": {
					"rotation": [0, 0, 45]
				},
				"arm_left2": {
					"rotation": [0, 40, 0]
				},
				"arm_right": {
					"rotation": [0, 0, -45]
				},
				"arm_right2": {
					"rotation": [0, -40, 0]
				},
				"leg_left": {
					"rotation": [0, -10, 0]
				},
				"leg_right": {
					"rotation": [0, 10, 0]
				}
			}
		},
		"animation.raboot.pose": {
			"loop": true,
			"bones": {
				"hair_left": {
					"rotation": [-35, 0, 20]
				},
				"hair_left2": {
					"rotation": [-20, 0, 0]
				},
				"hair": {
					"rotation": [-30, 0, 0]
				},
				"hair2": {
					"rotation": [-10, 0, 0]
				},
				"hair_right": {
					"rotation": [-30, 0, -20]
				},
				"hair_right2": {
					"rotation": [-20, 0, 0]
				},
				"ear_left": {
					"rotation": [0, 0, 65]
				},
				"ear_left2": {
					"rotation": [0, 0, 17.5]
				},
				"ear_right": {
					"rotation": [0, 0, -65]
				},
				"ear_right2": {
					"rotation": [0, 0, -17.5]
				},
				"head": {
					"rotation": [-5, 22.5, 0]
				},
				"tail": {
					"rotation": [-17.5, 0, 0]
				},
				"neck": {
					"rotation": [-5, 0, 0]
				},
				"pocket": {
					"position": [0, 0, -1]
				},
				"arm_right2": {
					"rotation": [0, -90, 0]
				},
				"arm_right": {
					"rotation": [76.74925, -43.22466, -64.86418],
					"position": [0, 0, 0]
				},
				"arm_left": {
					"rotation": [0, 0, 60],
					"position": [0, 0, 0]
				},
				"arm_left2": {
					"rotation": [0, 47.5, 0]
				},
				"leg_right": {
					"rotation": [-20, 15, 0]
				},
				"leg_left": {
					"rotation": [-45, -45, 0]
				},
				"leg_left2": {
					"rotation": [65, 0, 0]
				},
				"foot_left": {
					"rotation": [27.5, 0, 0]
				},
				"toe_left": {
					"rotation": [-40, 0, 0]
				},
				"leg_right2": {
					"rotation": [27.5, 0, 0]
				},
				"toe_right": {
					"rotation": [-7.5, 0, 0]
				},
				"body": {
					"position": [0, -0.5, 0]
				}
			}
		},
		"animation.raboot.blink": {
			"animation_length": 0.1667,
			"bones": {
				"eyelid_left": {
					"position": {
						"0.0": [0.1, 0, -0.1],
						"0.125": [0.1, 0, -0.1],
						"0.1667": [0, 0, 0]
					}
				},
				"eyelid_right": {
					"position": {
						"0.0": [-0.1, 0, -0.1],
						"0.125": [-0.1, 0, -0.1],
						"0.1667": [0, 0, 0]
					}
				},
				"eye_left": {
					"position": [0, 0, 0]
				}
			}
		},
		"animation.raboot.cry": {
			"animation_length": 1.5,
			"bones": {
				"mouth": {
					"position": {
						"0.0": [0, 0, 0],
						"0.25": [0, -2, 0],
						"1.25": [0, -2, 0],
						"1.5": [0, 0, 0]
					}
				},
				"mouth2": {
					"position": {
						"0.0": [0, 0, 0],
						"0.25": [0, -5, 0],
						"1.25": [0, -5, 0],
						"1.5": [0, 0, 0]
					}
				},
				"jaw": {
					"position": {
						"0.0": [0, 0, 0],
						"0.25": [0, -3, 0],
						"1.25": [0, -3, 0],
						"1.5": [0, 0, 0]
					}
				},
				"head2": {
					"rotation": {
						"0.0": [0, 0, 0],
						"0.25": [-15, 0, 0],
						"1.25": [-15, 0, 0],
						"1.5": [0, 0, 0]
					}
				},
				"mouth_closed2": {
					"position": {
						"0.25": [0, 0, -0.1],
						"0.3333": [0, 0, 0],
						"1.1667": [0, 0, 0],
						"1.25": [0, 0, -0.1]
					}
				},
				"mouth_open2": {
					"position": {
						"0.0": [0, 0, 0.1],
						"0.25": [0, 0, 0],
						"1.25": [0, 0, 0],
						"1.5": [0, 0, 0.1]
					}
				},
				"head3": {
					"rotation": {
						"0.0": [0, 0, 0],
						"0.25": [-15, 0, 0],
						"1.25": [-15, 0, 0],
						"1.5": [0, 0, 0]
					}
				},
				"mouth_closed3": {
					"position": {
						"0.25": [0, 0, -0.1],
						"0.3333": [0, 0, 0],
						"1.1667": [0, 0, 0],
						"1.25": [0, 0, -0.1]
					}
				},
				"mouth_open3": {
					"position": {
						"0.0": [0, 0, 0.1],
						"0.25": [0, 0, 0],
						"1.25": [0, 0, 0],
						"1.5": [0, 0, 0.1]
					}
				},
				"neck": {
					"rotation": {
						"0.0": [0, 0, 0],
						"0.25": [10, 0, 0],
						"1.25": [10, 0, 0],
						"1.5": [0, 0, 0]
					}
				},
				"head": {
					"rotation": {
						"0.0": [0, 0, 0],
						"0.25": [-15, 0, 0],
						"1.25": [-15, 0, 0],
						"1.5": [0, 0, 0]
					}
				},
				"mouth_closed": {
					"position": {
						"0.25": [0, 0, 0],
						"0.3333": [0, 0, 0.1],
						"1.1667": [0, 0, 0.1],
						"1.25": [0, 0, 0]
					}
				},
				"mouth_open": {
					"position": {
						"0.0": [0, 0, 0],
						"0.25": [0, 0, -0.1],
						"1.25": [0, 0, -0.1],
						"1.5": [0, 0, 0]
					}
				}
			}
		}
	}
}