{
	"format_version": "1.8.0",
	"animations": {
		"animation.electabuzz.ground_idle": {
			"loop": true,
			"bones": {
				"body": {
					"position": [0, -0.3, 0]
				},
				"torso": {
					"rotation": [2.5, 0, 0]
				},
				"tail": {
					"rotation": [11.36081, -5.24826, 24.47761]
				},
				"arm_left": {
					"rotation": [0, 0, 45]
				},
				"arm_left2": {
					"rotation": [9.36302, 31.26463, 17.62528]
				},
				"hand_left": {
					"rotation": [0, 0, 7.5]
				},
				"fingers_left": {
					"rotation": [0, 0, 70]
				},
				"finger_index_left": {
					"rotation": [0, 0, -2.5]
				},
				"finger_index_left2": {
					"rotation": [0, 0, 75]
				},
				"finger_middle_left": {
					"rotation": [0, 0, -5]
				},
				"finger_middle_left2": {
					"rotation": [0, 0, 67.5]
				},
				"finger_ring_left2": {
					"rotation": [0, 0, 70]
				},
				"finger_pinky_left": {
					"rotation": [0, 0, 5]
				},
				"finger_pinky_left2": {
					"rotation": [0, 0, 85]
				},
				"thumb_left": {
					"rotation": [-3.09472, 22.29711, 91.88997]
				},
				"thumb_left2": {
					"rotation": [0, -50, 0]
				},
				"leg_left": {
					"rotation": [2.20462, -12.3071, -10.23772]
				},
				"leg_left2": {
					"rotation": [10, 0, 0]
				},
				"foot_left": {
					"rotation": [-9.91615, 1.29876, 7.38733]
				},
				"claw_back_left": {
					"rotation": [-5, 0, 0]
				},
				"leg_right": {
					"rotation": [0, 12.5, 12.5]
				},
				"leg_right2": {
					"rotation": [14.98637, 0.64686, -2.41492]
				},
				"foot_right": {
					"rotation": [-9.89638, -1.61888, -7.32417]
				},
				"claw_back_right": {
					"rotation": [-5, 0, 0]
				},
				"arm_right": {
					"rotation": [-0.75967, 2.44081, -44.98768]
				},
				"arm_right2": {
					"rotation": [7.85085, -31.63886, -14.72765]
				},
				"hand_right": {
					"rotation": [0, 0, -12.5]
				},
				"fingers_right": {
					"rotation": [0, 0, -62.5]
				},
				"finger_pinky_right": {
					"rotation": [0, 0, -2.5]
				},
				"finger_pinky_right2": {
					"rotation": [0, 0, -72.5]
				},
				"finger_ring_right2": {
					"rotation": [0, 0, -70]
				},
				"finger_middle_right": {
					"rotation": [0, 0, 5]
				},
				"finger_middle_right2": {
					"rotation": [0, 0, -67.5]
				},
				"finger_index_right": {
					"rotation": [0, 0, 2.5]
				},
				"finger_index_right2": {
					"rotation": [0, 0, -70]
				},
				"thumb_right": {
					"rotation": [0, -12.5, -65]
				},
				"thumb_right2": {
					"rotation": [0, 55, 0]
				},
				"tail4": {
					"rotation": [37.73802, 5.94383, 4.58217]
				},
				"tail3": {
					"rotation": [42.74529, 5.52235, 5.08269]
				},
				"tail2": {
					"rotation": [27.5, 0, 0]
				},
				"head": {
					"rotation": [5, 0, 0]
				},
				"jaw": {
					"rotation": [15, 0, 0]
				}
			}
		},
		"animation.electabuzz.blink": {
			"animation_length": 0.16667,
			"bones": {
				"eyelid_left": {
					"position": {
						"0.0": [0, 0, -0.1],
						"0.125": [0, 0, -0.1],
						"0.1667": [0, 0, 0]
					}
				},
				"eyelid_right": {
					"position": {
						"0.0": [0, 0, -0.1],
						"0.125": [0, 0, -0.1],
						"0.1667": [0, 0, 0]
					}
				}
			}
		}
	}
}