{
	"format_version": "1.12.0",
	"minecraft:geometry": [
		{
			"description": {
				"identifier": "geometry.chansey",
				"texture_width": 64,
				"texture_height": 64,
				"visible_bounds_width": 3,
				"visible_bounds_height": 2.5,
				"visible_bounds_offset": [0, 0.75, 0]
			},
			"bones": [
				{
					"name": "chansey",
					"pivot": [0, 0, 0]
				},
				{
					"name": "body",
					"parent": "chansey",
					"pivot": [0, 1, 0]
				},
				{
					"name": "torso",
					"parent": "body",
					"pivot": [0, 7.5, 0],
					"cubes": [
						{"origin": [-6.5, 1, -5], "size": [13, 10, 10], "uv": [0, 0]},
						{"origin": [-2.5, 2, -8], "size": [5, 3, 3], "uv": [40, 28]},
						{"origin": [-5.5, 11, -4.5], "size": [11, 5, 9], "uv": [0, 20]}
					]
				},
				{
					"name": "mouth",
					"parent": "torso",
					"pivot": [0, 12.25, -4.5]
				},
				{
					"name": "mouth_closed",
					"parent": "mouth",
					"pivot": [0, 12.25, -4.61],
					"cubes": [
						{"origin": [-2, 11.25, -4.51], "size": [4, 2, 0], "uv": [0, 22]}
					]
				},
				{
					"name": "mouth_open",
					"parent": "mouth",
					"pivot": [0, 12.25, -4.31],
					"cubes": [
						{"origin": [-2, 11.25, -4.41], "size": [4, 2, 0], "uv": [0, 0]}
					]
				},
				{
					"name": "eyes",
					"parent": "torso",
					"pivot": [0, 14.5, -4.5]
				},
				{
					"name": "eye_right",
					"parent": "eyes",
					"pivot": [-1.75, 14.5, -4.01],
					"cubes": [
						{"origin": [-2.25, 13.5, -4.51], "size": [1, 2, 0], "uv": [6, 3]}
					]
				},
				{
					"name": "eyelid_right",
					"parent": "eye_right",
					"pivot": [-2, 14.5, -3.91],
					"cubes": [
						{"origin": [-3, 13.5, -4.41], "size": [2, 2, 1], "inflate": 0.01, "uv": [0, 2]}
					]
				},
				{
					"name": "eye_left",
					"parent": "eyes",
					"pivot": [1.75, 14.5, -4.01],
					"cubes": [
						{"origin": [1.25, 13.5, -4.51], "size": [1, 2, 0], "uv": [6, 6]}
					]
				},
				{
					"name": "eyelid_left",
					"parent": "eye_left",
					"pivot": [2, 14.5, -3.91],
					"cubes": [
						{"origin": [1, 13.5, -4.41], "size": [2, 2, 1], "inflate": 0.01, "uv": [0, 5]}
					]
				},
				{
					"name": "hand_left",
					"parent": "torso",
					"pivot": [4.25, 7.75, -5],
					"cubes": [
						{"origin": [3.75, 6.25, -8.5], "size": [1, 3, 5], "uv": [42, 42]}
					]
				},
				{
					"name": "hand_right",
					"parent": "torso",
					"pivot": [-4.25, 7.75, -5],
					"cubes": [
						{"origin": [-4.75, 6.25, -8.5], "size": [1, 3, 5], "uv": [42, 34]}
					]
				},
				{
					"name": "tail",
					"parent": "torso",
					"pivot": [0, 2, 4.5],
					"cubes": [
						{"origin": [-2, 2, 4], "size": [4, 2, 5], "uv": [46, 17]}
					]
				},
				{
					"name": "tail2",
					"parent": "tail",
					"pivot": [0, 3, 9],
					"cubes": [
						{"origin": [-1.5, 2.5, 8.5], "size": [3, 1, 4], "uv": [48, 12]}
					]
				},
				{
					"name": "egg",
					"parent": "torso",
					"pivot": [0, 4.5, -5.5],
					"cubes": [
						{"origin": [-2, 3.5, -7.5], "size": [4, 4, 4], "uv": [0, 40]},
						{"origin": [-1.5, 7.5, -7], "size": [3, 1, 3], "uv": [0, 48]}
					]
				},
				{
					"name": "hair_right1",
					"parent": "torso",
					"pivot": [-5.5, 13.25, -2.25],
					"cubes": [
						{"origin": [-11.5, 13.25, -3.25], "size": [8, 1, 2], "uv": [36, 3]}
					]
				},
				{
					"name": "hair_right2",
					"parent": "torso",
					"pivot": [-5.5, 13.75, 0],
					"cubes": [
						{"origin": [-12.5, 13.75, -1], "size": [9, 1, 2], "uv": [0, 34]}
					]
				},
				{
					"name": "hair_right3",
					"parent": "torso",
					"pivot": [-5.5, 14.25, 2.25],
					"cubes": [
						{"origin": [-11.5, 14.25, 1.25], "size": [8, 1, 2], "uv": [36, 0]}
					]
				},
				{
					"name": "hair_left1",
					"parent": "torso",
					"pivot": [5.5, 13.25, -2.25],
					"cubes": [
						{"origin": [3.5, 13.25, -3.25], "size": [8, 1, 2], "uv": [0, 37]}
					]
				},
				{
					"name": "hair_left2",
					"parent": "torso",
					"pivot": [5.5, 13.75, 0],
					"cubes": [
						{"origin": [3.5, 13.75, -1], "size": [9, 1, 2], "uv": [22, 34]}
					]
				},
				{
					"name": "hair_left3",
					"parent": "torso",
					"pivot": [5.5, 14.25, 2.25],
					"cubes": [
						{"origin": [3.5, 14.25, 1.25], "size": [8, 1, 2], "uv": [36, 6]}
					]
				},
				{
					"name": "foot_right",
					"parent": "body",
					"pivot": [-4, 1, 1],
					"cubes": [
						{"origin": [-5.5, 0, -2.5], "size": [3, 1, 5], "uv": [15, 37]}
					]
				},
				{
					"name": "foot_left",
					"parent": "body",
					"pivot": [4, 1, 1],
					"cubes": [
						{"origin": [2.5, 0, -2.5], "size": [3, 1, 5], "uv": [31, 37]}
					]
				}
			]
		}
	]
}