{
	"format_version": "1.8.0",
	"animations": {
		"animation.scatterbug.idle": {
			"loop": true,
			"bones": {
				"body": {
					"rotation": [0, 0, 0]
				},
				"body_back": {
					"rotation": [22.5, 0, 0]
				},
				"body_middle": {
					"rotation": ["-12.5 + 0.75*math.sin(q.anim_time*90*4)", "math.sin(q.anim_time*90*2)", 0]
				},
				"neck": {
					"rotation": ["-27.5 + 0.75*math.sin(q.anim_time*90*4-90)", 0, 0]
				},
				"head": {
					"rotation": ["-50 + math.sin(q.anim_time*90*4-180)", 0, 0],
					"position": [0, "0.025*math.sin(q.anim_time*90*4-270)", -1]
				},
				"fluff": {
					"rotation": [12.5, 0, 0]
				},
				"leg_front_left": {
					"rotation": [-12.5, 0, 0],
					"position": ["-0.05*math.sin(q.anim_time*90*2)", "0.4 + 0.025*math.sin(q.anim_time*90*4+135)", -0.2]
				},
				"leg_middle_left": {
					"position": [0, 0, 0]
				},
				"leg_front_right": {
					"rotation": [-12.5, 0, 0],
					"position": ["-0.05*math.sin(q.anim_time*90*2)", "0.4 + 0.025*math.sin(q.anim_time*90*4+135)", -0.2]
				},
				"antennae": {
					"rotation": ["2*math.sin(q.anim_time*90*4+180)", 0, 0]
				},
				"leg_back_left": {
					"position": ["0.025*math.sin(q.anim_time*90*2)", 0, 0]
				},
				"leg_back_right": {
					"position": ["0.025*math.sin(q.anim_time*90*2)", 0, 0]
				}
			}
		},
		"animation.scatterbug.blink": {
			"animation_length": 0.20833,
			"bones": {
				"eyelid_left": {
					"position": {
						"0.0": [0.1, -0.1, 0],
						"0.1667": [0.1, -0.1, 0],
						"0.2083": [0, 0, 0]
					}
				},
				"eyelid_right": {
					"position": {
						"0.0": [-0.1, -0.1, 0],
						"0.1667": [-0.1, -0.1, 0],
						"0.2083": [0, 0, 0]
					}
				}
			}
		}
	}
}