{
	"format_version": "1.8.0",
	"animations": {
		"animation.gabite.ground_idle": {
			"loop": true,
			"bones": {
				"neck2": {
					"rotation": [10, 0, 0]
				},
				"arm_left": {
					"rotation": [0, 0, 27.5]
				},
				"arm_left2": {
					"rotation": [0, 20, 0]
				},
				"arm_left3": {
					"rotation": [0, 60, 0]
				},
				"arm_right": {
					"rotation": [0, 0, -27.5]
				},
				"arm_right2": {
					"rotation": [0, -20, 0]
				},
				"arm_right3": {
					"rotation": [0, -60, 0]
				},
				"head": {
					"rotation": [-7.5, 0, 0]
				},
				"leg_left": {
					"rotation": [0, -12.5, 0]
				},
				"leg_right": {
					"rotation": [0, 12.5, 0]
				},
				"torso": {
					"rotation": [5, 0, 0]
				},
				"tail2": {
					"rotation": [5, 0, 0]
				},
				"tail3": {
					"rotation": [7.5, 0, 0]
				},
				"tail4": {
					"rotation": [12.5, 0, 0]
				}
			}
		},
		"animation.gabite.blink": {
			"animation_length": 0.1667,
			"bones": {
				"eyelid_left": {
					"position": {
						"0.0": [0.1, 0, 0],
						"0.125": [0.1, 0, 0],
						"0.1667": [0, 0, 0]
					}
				},
				"eyelid_right": {
					"position": {
						"0.0": [-0.1, 0, 0],
						"0.125": [-0.1, 0, 0],
						"0.1667": [0, 0, 0]
					}
				}
			}
		},
		"animation.gabite.cry": {
			"animation_length": 1.5,
			"bones": {
				"neck": {
					"rotation": {
						"0.0": [0, 0, 0],
						"0.25": [10, 0, 0],
						"1.25": [10, 0, 0],
						"1.5": [0, 0, 0]
					}
				},
				"head": {
					"rotation": {
						"0.0": [0, 0, 0],
						"0.25": [-15, 0, 0],
						"1.25": [-15, 0, 0],
						"1.5": [0, 0, 0]
					}
				},
				"jaw": {
					"rotation": {
						"0.0": [0, 0, 0],
						"0.25": [25, 0, 0],
						"1.25": [25, 0, 0],
						"1.5": [0, 0, 0]
					}
				}
			}
		}
	}
}