{
	"format_version": "1.12.0",
	"minecraft:geometry": [
		{
			"description": {
				"identifier": "geometry.lunatone",
				"texture_width": 128,
				"texture_height": 64,
				"visible_bounds_width": 3,
				"visible_bounds_height": 2.5,
				"visible_bounds_offset": [0, 0.75, 0]
			},
			"bones": [
				{
					"name": "lunatone",
					"pivot": [0, 1, 0]
				},
				{
					"name": "body",
					"parent": "lunatone",
					"pivot": [0, 11.5, 1],
					"cubes": [
						{"origin": [-4.5, 3, 2], "size": [9, 17, 10], "uv": [0, 0]}
					]
				},
				{
					"name": "eyes",
					"parent": "body",
					"pivot": [0, -0.5, -0.4]
				},
				{
					"name": "eye_left",
					"parent": "eyes",
					"pivot": [3.9, 11.5, 6],
					"cubes": [
						{"origin": [3.4, 9.5, 4.5], "size": [1, 4, 3], "uv": [64, 0]}
					]
				},
				{
					"name": "eyelid_left",
					"parent": "eye_left",
					"pivot": [2.9, 11.5, 6],
					"cubes": [
						{"origin": [2.4, 9.5, 4.5], "size": [1, 4, 3], "inflate": 0.02, "uv": [64, 7]}
					]
				},
				{
					"name": "eye_right",
					"parent": "eyes",
					"pivot": [-3.9, 11.5, 6],
					"cubes": [
						{"origin": [-4.4, 9.5, 4.5], "size": [1, 4, 3], "uv": [64, 0], "mirror": true}
					]
				},
				{
					"name": "eyelid_right",
					"parent": "eye_right",
					"pivot": [-2.9, 11.5, 6],
					"cubes": [
						{"origin": [-3.4, 9.5, 4.5], "size": [1, 4, 3], "inflate": 0.02, "uv": [64, 7], "mirror": true}
					]
				},
				{
					"name": "eye_holes",
					"parent": "body",
					"pivot": [0, 0, 0]
				},
				{
					"name": "eye_hole_left",
					"parent": "eye_holes",
					"pivot": [3.9, 11.5, 6],
					"cubes": [
						{"origin": [3.498, 8, 2.1], "size": [0, 7, 7], "uv": [38, 0]},
						{"origin": [3.498, 15, 3], "size": [1, 0, 6], "uv": [46, 7]},
						{"origin": [3.498, 8, 3], "size": [1, 0, 6], "uv": [48, 7]},
						{"origin": [3.498, 8, 3], "size": [1, 7, 0], "uv": [56, 0]},
						{"origin": [3.498, 8, 9], "size": [1, 7, 0], "uv": [58, 0]},
						{"origin": [3.502, 12, 2], "size": [1, 0, 1], "uv": [35, 7], "mirror": true},
						{"origin": [3.502, 11, 2], "size": [1, 0, 1], "uv": [35, 8], "mirror": true}
					]
				},
				{
					"name": "eye_hole_right",
					"parent": "eye_holes",
					"pivot": [-3.9, 11.5, 6],
					"cubes": [
						{"origin": [-3.498, 8, 2.1], "size": [0, 7, 7], "uv": [34, -7], "mirror": true},
						{"origin": [-4.498, 15, 3], "size": [1, 0, 6], "uv": [42, 0], "mirror": true},
						{"origin": [-4.498, 8, 3], "size": [1, 0, 6], "uv": [44, 0], "mirror": true},
						{"origin": [-4.498, 8, 3], "size": [1, 7, 0], "uv": [52, 0], "mirror": true},
						{"origin": [-4.498, 8, 9], "size": [1, 7, 0], "uv": [54, 0], "mirror": true},
						{"origin": [-4.498, 12, 2], "size": [1, 0, 1], "uv": [33, 7], "mirror": true},
						{"origin": [-4.498, 11, 2], "size": [1, 0, 1], "uv": [33, 8], "mirror": true}
					]
				},
				{
					"name": "mouth",
					"parent": "body",
					"pivot": [0, 11.42693, 0.54887],
					"cubes": [
						{"origin": [-3.5, 10.5, -5.67], "size": [7, 2, 8], "inflate": 0.02, "uv": [0, 37]},
						{"origin": [-3.5, 10.56, -5.4], "size": [7, 2, 8], "inflate": 0.01, "pivot": [0.5, 11.5, -5.4], "rotation": [15, 0, 0], "uv": [0, 27]},
						{"origin": [-3.5, 10.45, -5.4], "size": [7, 2, 8], "pivot": [0.5, 11.5, -5.4], "rotation": [-15, 0, 0], "uv": [0, 47]}
					]
				},
				{
					"name": "body_up",
					"parent": "body",
					"pivot": [0, 20, 9],
					"cubes": [
						{"origin": [-3.5, 15.8, 2.2], "size": [7, 3, 4], "pivot": [0, 20, 3], "rotation": [-45, 0, 0], "uv": [0, 57]},
						{"origin": [-3.5, 17, -5], "size": [7, 6, 14], "inflate": 0.01, "uv": [24, 44]},
						{"origin": [-2.5, 15.3, -7.9], "size": [5, 5, 5], "pivot": [0, 17.5, -7.5], "rotation": [30, 0, 0], "uv": [52, 28]}
					]
				},
				{
					"name": "body_down",
					"parent": "body",
					"pivot": [0, 3, 9],
					"cubes": [
						{"origin": [-3.5, 4.2, 2.2], "size": [7, 3, 4], "pivot": [0, 3, 3], "rotation": [45, 0, 0], "uv": [38, 14]},
						{"origin": [-3.5, 0, -5], "size": [7, 6, 14], "inflate": 0.01, "uv": [24, 24]},
						{"origin": [-2.5, 2.7, -7.9], "size": [5, 5, 5], "pivot": [0, 5.5, -7.5], "rotation": [-30, 0, 0], "uv": [52, 48]}
					]
				}
			]
		}
	]
}