{
	"credit": "Made with Blockbench",
	"textures": {
		"33": "block/sweetheart1"
	},
	"elements": [
		{
			"from": [5, 0, 7],
			"to": [7, 1, 14],
			"faces": {
				"north": {"uv": [3, 15, 5, 16], "texture": "#33"},
				"east": {"uv": [4, 7, 11, 8], "texture": "#33"},
				"south": {"uv": [3, 15, 5, 16], "texture": "#33"},
				"west": {"uv": [8, 0, 15, 1], "texture": "#33"},
				"up": {"uv": [5, 8, 3, 1], "rotation": 180, "texture": "#33"},
				"down": {"uv": [5, 9, 3, 16], "texture": "#33"}
			}
		},
		{
			"from": [3, 0, 6],
			"to": [5, 1, 13],
			"faces": {
				"north": {"uv": [11, 7, 13, 8], "texture": "#33"},
				"east": {"uv": [8, 1, 15, 2], "texture": "#33"},
				"south": {"uv": [3, 15, 5, 16], "texture": "#33"},
				"west": {"uv": [8, 2, 15, 3], "texture": "#33"},
				"up": {"uv": [3, 7, 1, 0], "rotation": 180, "texture": "#33"},
				"down": {"uv": [3, 8, 1, 15], "rotation": 180, "texture": "#33"}
			}
		},
		{
			"from": [7, 0, 6],
			"to": [9, 1, 13],
			"faces": {
				"north": {"uv": [11, 8, 13, 9], "texture": "#33"},
				"east": {"uv": [0, 13, 7, 14], "texture": "#33"},
				"south": {"uv": [11, 9, 13, 10], "texture": "#33"},
				"west": {"uv": [4, 8, 11, 9], "texture": "#33"},
				"up": {"uv": [7, 7, 5, 0], "rotation": 180, "texture": "#33"},
				"down": {"uv": [7, 8, 5, 15], "rotation": 180, "texture": "#33"}
			}
		},
		{
			"from": [9, 0, 7],
			"to": [10, 1, 12],
			"faces": {
				"north": {"uv": [3, 15, 4, 16], "texture": "#33"},
				"east": {"uv": [1, 14, 6, 15], "texture": "#33"},
				"south": {"uv": [3, 15, 4, 16], "texture": "#33"},
				"west": {"uv": [1, 14, 6, 15], "texture": "#33"},
				"up": {"uv": [8, 6, 7, 1], "rotation": 180, "texture": "#33"},
				"down": {"uv": [8, 9, 7, 14], "texture": "#33"}
			}
		},
		{
			"from": [2, 0, 7],
			"to": [3, 1, 12],
			"faces": {
				"north": {"uv": [3, 15, 4, 16], "texture": "#33"},
				"east": {"uv": [9, 6, 14, 7], "texture": "#33"},
				"south": {"uv": [3, 15, 4, 16], "texture": "#33"},
				"west": {"uv": [1, 14, 6, 15], "texture": "#33"},
				"up": {"uv": [1, 6, 0, 1], "rotation": 180, "texture": "#33"},
				"down": {"uv": [1, 9, 0, 14], "texture": "#33"}
			}
		},
		{
			"from": [9, -1.4, 2],
			"to": [11, -0.4, 9],
			"rotation": {"angle": -22.5, "axis": "x", "origin": [0, 0, 0]},
			"faces": {
				"north": {"uv": [3, 15, 5, 16], "texture": "#33"},
				"east": {"uv": [4, 7, 11, 8], "texture": "#33"},
				"south": {"uv": [3, 15, 5, 16], "texture": "#33"},
				"west": {"uv": [8, 0, 15, 1], "texture": "#33"},
				"up": {"uv": [13, 8, 11, 1], "rotation": 180, "texture": "#33"},
				"down": {"uv": [13, 9, 11, 16], "texture": "#33"}
			}
		},
		{
			"from": [7, -1.4, 1],
			"to": [9, -0.4, 8],
			"rotation": {"angle": -22.5, "axis": "x", "origin": [0, 0, 0]},
			"faces": {
				"north": {"uv": [3, 15, 5, 16], "texture": "#33"},
				"east": {"uv": [8, 1, 15, 2], "texture": "#33"},
				"south": {"uv": [3, 15, 5, 16], "texture": "#33"},
				"west": {"uv": [8, 2, 15, 3], "texture": "#33"},
				"up": {"uv": [11, 7, 9, 0], "rotation": 180, "texture": "#33"},
				"down": {"uv": [11, 8, 9, 15], "rotation": 180, "texture": "#33"}
			}
		},
		{
			"from": [11, -1.4, 1],
			"to": [13, -0.4, 8],
			"rotation": {"angle": -22.5, "axis": "x", "origin": [0, 0, 0]},
			"faces": {
				"north": {"uv": [11, 8, 13, 9], "texture": "#33"},
				"east": {"uv": [0, 13, 7, 14], "texture": "#33"},
				"south": {"uv": [11, 9, 13, 10], "texture": "#33"},
				"west": {"uv": [4, 8, 11, 9], "texture": "#33"},
				"up": {"uv": [15, 7, 13, 0], "rotation": 180, "texture": "#33"},
				"down": {"uv": [15, 8, 13, 15], "rotation": 180, "texture": "#33"}
			}
		},
		{
			"from": [13, -1.4, 2],
			"to": [14, -0.4, 7],
			"rotation": {"angle": -22.5, "axis": "x", "origin": [0, 0, 0]},
			"faces": {
				"north": {"uv": [3, 15, 4, 16], "texture": "#33"},
				"east": {"uv": [1, 14, 6, 15], "texture": "#33"},
				"south": {"uv": [3, 15, 4, 16], "texture": "#33"},
				"west": {"uv": [8, 5, 13, 6], "texture": "#33"},
				"up": {"uv": [16, 6, 15, 1], "rotation": 180, "texture": "#33"},
				"down": {"uv": [16, 9, 15, 14], "texture": "#33"}
			}
		},
		{
			"from": [6, -1.4, 2],
			"to": [7, -0.4, 7],
			"rotation": {"angle": -22.5, "axis": "x", "origin": [0, 0, 0]},
			"faces": {
				"north": {"uv": [8, 12, 9, 13], "texture": "#33"},
				"east": {"uv": [8, 6, 13, 7], "texture": "#33"},
				"south": {"uv": [3, 15, 4, 16], "texture": "#33"},
				"west": {"uv": [1, 9, 6, 10], "texture": "#33"},
				"up": {"uv": [9, 6, 8, 1], "rotation": 180, "texture": "#33"},
				"down": {"uv": [9, 9, 8, 14], "texture": "#33"}
			}
		}
	],
	"display": {
		"thirdperson_righthand": {
			"translation": [-2, 6, 0]
		},
		"thirdperson_lefthand": {
			"translation": [-2, 6, 0],
			"scale": [-1, 1, 1]
		},
		"firstperson_righthand": {
			"translation": [0, 6, 0]
		},
		"firstperson_lefthand": {
			"translation": [0, 6, 0]
		},
		"ground": {
			"translation": [0, 4.5, 0]
		},
		"gui": {
			"rotation": [25, -142, 0],
			"translation": [0, 5.25, 0],
			"scale": [1.25, 1.25, 1.25]
		},
		"head": {
			"translation": [0, 19.5, 0],
			"scale": [1.65, 1.65, 1.65]
		},
		"fixed": {
			"translation": [0, 7, 0],
			"scale": [1.5, 1.5, 1.5]
		}
	},
	"groups": [
		{
			"name": "Sweet Heart",
			"origin": [0, 0, 0],
			"color": 0,
			"children": [0, 1, 2, 3, 4]
		},
		{
			"name": "Sweet Heart Lid",
			"origin": [0, 0, 0],
			"color": 0,
			"children": [5, 6, 7, 8, 9]
		}
	]
}